GR5058 Data Mining Final Project
…
# load forex
forex <- read_csv('data/forex.csv')

Foreign Exchange Rates

For the purposes of arriving at variables with predictive properties pertaining to the Adjusted Close Price of the DGX stock, the dependent variable in our model, we explore exchange rates between the U.S. Dollar and the currencies of countries where DGX has operations. The reason being that foreign exchange rates are said by the financial industry modellers (RebellionResearch) to have been found highly indicative of the health of certain target economies, which in turn betters their models. We include the exchange rates from both perspectives. That is, we have rates between the American dollar, the Mexican peso, the British pound, the Brazilian real, and the Canadian dollar, in pair-wise combinations, i.e. USD-to-CAD, CAD-to-USD, USD-to-MXN, MXN-to-USD, USD-to-BRL, BRL-to-USD, USD-to-GBP, and GBP-to-USD. The figures, therefore, represent a ratio, and are parsed daily.

https://www.ofx.com/en-us/forex-news/historical-exchange-rates/

# load gdp
gdp <- read_csv('data/nyfed_nowcast_gdp.csv')
gdp

## # A tibble: 104 x 3
##    date       quarter   gdp
##    <date>     <chr>   <dbl>
##  1 2017-01-06 2017Q1   1.99
##  2 2017-01-13 2017Q1   2.07
##  3 2017-01-20 2017Q1   2.66
##  4 2017-01-27 2017Q1   2.66
##  5 2017-02-03 2017Q1   2.92
##  6 2017-02-10 2017Q1   3.07
##  7 2017-02-17 2017Q1   3.09
##  8 2017-02-24 2017Q1   3.12
##  9 2017-03-03 2017Q1   3.09
## 10 2017-03-10 2017Q1   3.19
## # … with 94 more rows

NY Federal Reserve Nowcast of GDP Growth

The report tracks the evolution of the New York Fed Staff Nowcast of GDP growth and the impact of new data releases on the forecast. The Nowcasting Report is an innovating tool for arriving at weekly GDP figures. The data is therefore weekly GDP estimates, as percent w-o-w change.

 Combine all data into a single data frame.

data <- gdp %>%
  left_join(forex) %>%
  left_join(dgx_lh) %>%
  drop_na(dgx_adj_close)

data

## # A tibble: 102 x 17
##    date       quarter   gdp us_uk uk_us us_mxp mxp_us us_bzr bzr_us dgx_adj_close dgx_volume dgx_daily_tot_r… dgx_hv20
##    <date>     <chr>   <dbl> <dbl> <dbl>  <dbl>  <dbl>  <dbl>  <dbl>         <dbl>      <dbl>            <dbl>    <dbl>
##  1 2017-01-06 2017Q1   1.99  0.81  1.23   21.3   0.05   3.21   0.31          86.6     784500        -0.00444    0.144 
##  2 2017-01-13 2017Q1   2.07  0.82  1.22   21.5   0.05   3.21   0.31          87.2     663200         0.00477    0.144 
##  3 2017-01-20 2017Q1   2.66  0.81  1.23   21.7   0.05   3.19   0.31          85.6    1167700        -0.000769   0.128 
##  4 2017-01-27 2017Q1   2.66  0.8   1.25   21.0   0.05   3.15   0.32          87.2    1374700         0.0241     0.136 
##  5 2017-02-03 2017Q1   2.92  0.8   1.25   20.4   0.05   3.12   0.32          87.8     745700         0.00571    0.0856
##  6 2017-02-10 2017Q1   3.07  0.8   1.25   20.3   0.05   3.11   0.32          88.0     877700        -0.00426    0.0795
##  7 2017-02-17 2017Q1   3.09  0.81  1.24   20.5   0.05   3.1    0.32          90.0     978700        -0.00240    0.0928
##  8 2017-02-24 2017Q1   3.12  0.8   1.25   19.9   0.05   3.1    0.32          91.6     807100        -0.00164    0.0793
##  9 2017-03-03 2017Q1   3.09  0.82  1.22   19.6   0.05   3.14   0.32          92.7     510100         0.00152    0.0753
## 10 2017-03-10 2017Q1   3.19  0.82  1.22   19.7   0.05   3.16   0.32          92.9     549100        -0.000101   0.0730
## # … with 92 more rows, and 4 more variables: dgx_hv30 <dbl>, dgx_hv60 <dbl>, lh_adj_close <dbl>, lh_volume <dbl>
…
